[{ "_id" : { "$oid" : "537f5a1afe045b3d5976fa0d" }, "__v" : 0 },
{ "_id" : { "$oid" : "537f5a45baf57d7e59ff1573" }, "__v" : 0 },
{ "ClientName" : "John", "ClientEmail" : "mss.jeevanverma@gmail.com", "Clientbudget" : 5, "ClientSkype" : "mss_jeevanverma", "Clienthistory" : "Lorem lipsam is dummy text.", "_id" : { "$oid" : "537f5acbbaf57d7e59ff1576" }, "__v" : 0 },
{ "_id" : { "$oid" : "537fcac95f8964d805e2735b" }, "__v" : 0 },
{ "_id" : { "$oid" : "53803b4d2ab50439257eef5e" }, "__v" : 0 },
{ "_id" : { "$oid" : "5380abcf7d11616a40fb7cf0" }, "__v" : 0 },
{ "_id" : { "$oid" : "53811c500a5bc3895c139861" }, "__v" : 0 },
{ "_id" : { "$oid" : "53818cd2db2d6d127a1862f9" }, "__v" : 0 },
{ "_id" : { "$oid" : "5381fd53bd85db9c16e4230e" }, "__v" : 0 },
{ "_id" : { "$oid" : "53826dd49225720432afe1e0" }, "__v" : 0 },
{ "ClientName" : "Joe E", "Clientbudget" : 13, "ClientSkype" : "bodrokto", "Clienthistory" : "Suffern, United States (UTC-05\nMember since February 22, 2014\n Payment Method Verified", "_id" : { "$oid" : "53828de69225720432afe1f7" }, "__v" : 0 },
{ "ClientName" : "sachin", "ClientEmail" : "sachin@gmail.com", "Clientbudget" : 56, "ClientSkype" : "GBGF", "Clienthistory" : "qwqdew", "_id" : { "$oid" : "5382beb29225720432afe1fa" }, "__v" : 0 },
{ "_id" : { "$oid" : "5382de5783971fcd5c129330" }, "__v" : 0 },
{ "_id" : { "$oid" : "5382f63bfb52e4746b358748" }, "__v" : 0 },
{ "ClientName" : "sachin", "ClientEmail" : "sachin@gmail.com", "Clientbudget" : 56, "ClientSkype" : "mss", "Clienthistory" : "dfsdgf", "_id" : { "$oid" : "5382f674fb52e4746b35874a" }, "__v" : 0 },
{ "ClientName" : "sachin", "ClientEmail" : "sachin@gmail.com", "Clientbudget" : 56.9, "ClientSkype" : "mss", "Clienthistory" : "fdsfsdd", "_id" : { "$oid" : "538304a6fb52e4746b35874d" }, "__v" : 0 },
{ "ClientName" : "Aman", "ClientEmail" : "aman@gmail.com", "Clientbudget" : 78, "ClientSkype" : "hnmgh", "Clienthistory" : ",trtrhut", "_id" : { "$oid" : "538306fbfb52e4746b358751" }, "__v" : 0 },
{ "ClientName" : "sachin", "ClientEmail" : "sachin1@gmail.com", "Clientbudget" : 56.89, "Clienthistory" : "zaxcasc", "_id" : { "$oid" : "53830720fb52e4746b358753" }, "__v" : 0 },
{ "ClientName" : "sachin", "ClientEmail" : "sachin@gmail.com", "Clientbudget" : 56, "ClientSkype" : "GBGF", "Clienthistory" : "thtyh", "_id" : { "$oid" : "538308a6fb52e4746b358756" }, "__v" : 0 },
{ "ClientName" : "sachin", "ClientEmail" : "sachin@gmail.com", "Clientbudget" : 56.9, "ClientSkype" : "GBGF", "Clienthistory" : "fhgj", "_id" : { "$oid" : "5383091efb52e4746b358759" }, "__v" : 0 },
{ "ClientName" : "Humphrey Drummond", "Clientbudget" : 17, "Clienthistory" : "8 JOBS POSTED\n88% Hire Rate, 1 Open Job\n$19.35/hr AVG HOURLY RATE PAID", "_id" : { "$oid" : "53830ad3fb52e4746b35875b" }, "__v" : 0 },
{ "ClientName" : "David Albert", "Clientbudget" : 20, "Clienthistory" : "9 JOBS POSTED\n78% Hire Rate, 1 Open Job\n$22.02/hr AVG HOURLY RATE PAID", "_id" : { "$oid" : "53830c67fb52e4746b35875d" }, "__v" : 0 },
{ "ClientName" : "sean Hynes", "Clientbudget" : 17, "Clienthistory" : "58 JOBS POSTED\n68% Hire Rate, 4 Open Jobs\n$4.51/hr AVG HOURLY RATE PAID", "_id" : { "$oid" : "53830d85fb52e4746b35875f" }, "__v" : 0 },
{ "ClientName" : "Jeffrey Gray", "Clientbudget" : 16, "ClientSkype" : "gray.jeffrey", "Clienthistory" : "6 JOBS POSTED\n34% Hire Rate, 1 Open Job\n$22.22/hr AVG HOURLY RATE PAID", "_id" : { "$oid" : "53830fa8fb52e4746b358761" }, "__v" : 0 },
{ "ClientName" : "Richard Junestrand", "Clientbudget" : 18, "Clienthistory" : "8 JOBS POSTED\n88% Hire Rate, 1 Open Job\n$19.89/hr AVG HOURLY RATE PAID", "_id" : { "$oid" : "538312c5fb52e4746b358763" }, "__v" : 0 },
{ "ClientName" : "Liudmyla Karpova", "Clientbudget" : 21, "ClientSkype" : "lucy_popova", "Clienthistory" : "15 JOBS POSTED\n34% Hire Rate, 7 Open Jobs\n$20.62/hr AVG HOURLY RATE PAID", "_id" : { "$oid" : "538314b5fb52e4746b358766" }, "__v" : 0 },
{ "ClientName" : "John Armada", "Clientbudget" : 15, "Clienthistory" : "6 JOBS POSTED\n17% Hire Rate, 2 Open Jobs\n$6.00/hr AVG HOURLY RATE PAID", "_id" : { "$oid" : "53831566fb52e4746b358768" }, "__v" : 0 },
{ "ClientName" : "Afolabi Bamodu", "Clientbudget" : 19, "ClientSkype" : "fobzy-skyper", "Clienthistory" : "71 JOBS POSTED\n70% Hire Rate, 6 Open Jobs\n$19.61/hr AVG HOURLY RATE PAID", "_id" : { "$oid" : "5383169efb52e4746b35876a" }, "__v" : 0 },
{ "ClientName" : "Bryan Dent", "Clientbudget" : 3500, "Clienthistory" : "46 JOBS POSTED\n87% Hire Rate, 1 Open Job\n$22.18/hr AVG HOURLY RATE PAID", "_id" : { "$oid" : "53831794fb52e4746b35876c" }, "__v" : 0 },
{ "ClientName" : "Eric Palumbo", "Clientbudget" : 1200, "ClientSkype" : "eric.palumboe1", "Clienthistory" : "94 JOBS POSTED\n32% Hire Rate, 1 Open Job\n$31.18/hr AVG HOURLY RATE PAID", "_id" : { "$oid" : "538318b6fb52e4746b35876e" }, "__v" : 0 },
{ "_id" : { "$oid" : "538356e4d08ff44220a101f6" }, "__v" : 0 },
{ "_id" : { "$oid" : "5383c765282b63af41e94b5c" }, "__v" : 0 },
{ "ClientName" : "Jonathan/Anton", "ClientEmail" : "", "Clientbudget" : 1500, "ClientSkype" : "", "Clienthistory" : "$194 TOTAL SPENT\n$5.56/hr AVG rate", "_id" : { "$oid" : "53842d24282b63af41e94b74" }, "__v" : 0 },
{ "_id" : { "$oid" : "53842f50be8940df15ce2ddf" }, "__v" : 0 },
{ "ClientName" : "Gianni Kensenhuis", "ClientEmail" : "", "Clientbudget" : 3, "ClientSkype" : "Ben_Pinas", "Clienthistory" : "$8,334 spend", "_id" : { "$oid" : "538438ebbe8940df15ce2de5" }, "__v" : 0 },
{ "_id" : { "$oid" : "5384391834e47f8c1c98c568" }, "__v" : 0 },
{ "ClientName" : "Al T", "ClientEmail" : "", "Clientbudget" : 16, "ClientSkype" : "", "Clienthistory" : "$2637 spent", "_id" : { "$oid" : "53843b0334e47f8c1c98c56a" }, "__v" : 0 },
{ "ClientName" : "Andrew Hunt", "ClientEmail" : "", "Clientbudget" : 16, "ClientSkype" : "", "Clienthistory" : "$2,810 spent", "_id" : { "$oid" : "53843bef34e47f8c1c98c56c" }, "__v" : 0 },
{ "_id" : { "$oid" : "5384a99c005fc61a516d051f" }, "__v" : 0 },
{ "_id" : { "$oid" : "53851a1e6742bd2f76bed253" }, "__v" : 0 },
{ "ClientName" : "Khairul Anuar", "ClientEmail" : "", "Clientbudget" : 20, "ClientSkype" : "", "Clienthistory" : "Client is new on oDesk,\ntill now he has done a business of $567 @ $22.222/hour.", "_id" : { "$oid" : "5385301f6742bd2f76bed259" }, "__v" : 0 },
{ "ClientName" : "sachin", "ClientEmail" : "hyjuhjyk@gmail.usd", "Clientbudget" : 67.95999999999999, "ClientSkype" : "", "Clienthistory" : "tuhjtyju", "_id" : { "$oid" : "53857c886742bd2f76bed277" }, "__v" : 0 },
{ "_id" : { "$oid" : "53858aa1206d223721f4bb17" }, "__v" : 0 },
{ "_id" : { "$oid" : "5385fb25b9e3e4235388ffc5" }, "__v" : 0 },
{ "_id" : { "$oid" : "53866ba65a08118a6fcaf891" }, "__v" : 0 },
{ "_id" : { "$oid" : "5386dc2ae7658bb617e4dbb4" }, "__v" : 0 },
{ "ClientName" : "Maurice Kroon", "ClientEmail" : "", "Clientbudget" : 16, "ClientSkype" : "mauricekroon", "Clienthistory" : "Has posted 5 jobs till now and awarded one at 22.22$. Not a very long history and has joined odesk in 2012", "_id" : { "$oid" : "53871412e7658bb617e4dbba" }, "__v" : 0 },
{ "_id" : { "$oid" : "53874cafbf32b5925ad16b06" }, "__v" : 0 },
{ "_id" : { "$oid" : "5387bd32f3ae9e0b7ad95b46" }, "__v" : 0 },
{ "ClientName" : "SAIDI WRIGHT", "ClientEmail" : "", "Clientbudget" : 16.67, "ClientSkype" : "", "Clienthistory" : "Client history is good, as clients feedback score is 5, till now he spend around $2k", "_id" : { "$oid" : "53882013f3ae9e0b7ad95b55" }, "__v" : 0 },
{ "_id" : { "$oid" : "53882db5c4381ce622a56ba1" }, "__v" : 0 },
{ "_id" : { "$oid" : "53889e3ae09ca09b71f9072a" }, "__v" : 0 },
{ "_id" : { "$oid" : "53890ebc791e22041390d279" }, "__v" : 0 },
{ "_id" : { "$oid" : "53897f3f2a946cca3e31ccf7" }, "__v" : 0 },
{ "_id" : { "$oid" : "5389f5e21d0175481d04e153" }, "__v" : 0 },
{ "_id" : { "$oid" : "5389f62f81c1cb7f1ea62fe4" }, "__v" : 0 },
{ "_id" : { "$oid" : "538c107399a910b8179d52ca" }, "__v" : 0 },
{ "ClientName" : "sachin", "ClientEmail" : "", "Clientbudget" : 454, "ClientSkype" : "", "Clienthistory" : "nope", "_id" : { "$oid" : "538c24ab99a910b8179d52da" }, "__v" : 0 },
{ "_id" : { "$oid" : "538c80f5360a7e3a4ad3b2c2" }, "__v" : 0 },
{ "ClientName" : "John Dziak", "ClientEmail" : "", "Clientbudget" : 15, "ClientSkype" : "dziactor", "Clienthistory" : "Total jobs posted 7 and his hiring rate is 29% , spend more then 4000 and average hourly rate is very good (40$)", "_id" : { "$oid" : "538c920f360a7e3a4ad3b2c3" }, "__v" : 0 },
{ "_id" : { "$oid" : "538cf175538209546820fe44" }, "__v" : 0 },
{ "_id" : { "$oid" : "538d53169a1824430e30a44e" }, "__v" : 0 },
{ "_id" : { "$oid" : "538d551eb5b1547f10cde7b6" }, "__v" : 0 },
{ "_id" : { "$oid" : "538d552edc3e4ab1104728ff" }, "__v" : 0 },
{ "_id" : { "$oid" : "538d5875c56ddfa814a44a5f" }, "__v" : 0 },
{ "_id" : { "$oid" : "538d66afd2462fa71ddf3207" }, "__v" : 0 },
{ "_id" : { "$oid" : "538d672107237e131eaa63ed" }, "__v" : 0 },
{ "_id" : { "$oid" : "538d6a080613b72f2005f4a5" }, "__v" : 0 },
{ "_id" : { "$oid" : "538d6ae8e337df4d2198cb62" }, "__v" : 0 },
{ "_id" : { "$oid" : "538d6b4ff44992a821987334" }, "__v" : 0 },
{ "_id" : { "$oid" : "538d6c6f48f6fa3422475bec" }, "__v" : 0 },
{ "_id" : { "$oid" : "538d6d34392aa1c322425e56" }, "__v" : 0 },
{ "ClientName" : "Billy Chau", "ClientEmail" : "", "Clientbudget" : 15, "ClientSkype" : "", "Clienthistory" : "Ok-ok", "_id" : { "$oid" : "538d9772392aa1c322425e6b" }, "__v" : 0 },
{ "_id" : { "$oid" : "538de9d1c893666329fbe690" }, "__v" : 0 },
{ "_id" : { "$oid" : "538e5a53457b605a40f90d9c" }, "__v" : 0 },
{ "ClientName" : "Geoffrey Weigel", "ClientEmail" : "", "Clientbudget" : 30, "ClientSkype" : "", "Clienthistory" : "No hourly projects, only fixed project, good rating", "_id" : { "$oid" : "538e7dcf457b605a40f90da5" }, "__v" : 0 },
{ "_id" : { "$oid" : "538ea8349c2425b91ed5841a" }, "__v" : 0 },
{ "ClientName" : "Roserene Balana", "ClientEmail" : "", "Clientbudget" : 16, "ClientSkype" : "", "Clienthistory" : "268 reviews, good history, hourly jobs are more", "_id" : { "$oid" : "538ebab49c2425b91ed5841e" }, "__v" : 0 },
{ "_id" : { "$oid" : "538f18b610b3aae74170f874" }, "__v" : 0 },
{ "ClientName" : "Kristian Holm", "ClientEmail" : "", "Clientbudget" : 19, "ClientSkype" : "", "Clienthistory" : "New on odesk, Has joined on feb 2014, Has posted 5 jobs till today 2 were awarded. 650$ spent till today", "_id" : { "$oid" : "538f351a10b3aae74170f875" }, "__v" : 0 },
{ "_id" : { "$oid" : "538f8937a1a05a3868bc9b4f" }, "__v" : 0 },
{ "_id" : { "$oid" : "538ff9b766b785ba093125a4" }, "__v" : 0 },
{ "ClientName" : "Robert Mccabe", "ClientEmail" : "", "Clientbudget" : 15, "ClientSkype" : "", "Clienthistory" : "No history (2 jobs in progress)", "_id" : { "$oid" : "53900eea66b785ba093125a9" }, "__v" : 0 },
{ "_id" : { "$oid" : "53906a38edda7a793789fa00" }, "__v" : 0 },
{ "_id" : { "$oid" : "5390dab8a422a15256e78d8d" }, "__v" : 0 },
{ "_id" : { "$oid" : "53914b395ccb240a731dcc2d" }, "__v" : 0 },
{ "_id" : { "$oid" : "5391bbba7d30aec448ed116b" }, "__v" : 0 },
{ "_id" : { "$oid" : "53922c3a7a71830c669e2f14" }, "__v" : 0 },
{ "_id" : { "$oid" : "53929cbd91834069059fdae9" }, "__v" : 0 },
{ "_id" : { "$oid" : "53930d3fb33a203247b3ff72" }, "__v" : 0 },
{ "_id" : { "$oid" : "53937dc0286ea63a68b5a784" }, "__v" : 0 },
{ "_id" : { "$oid" : "5393ee408f64d3d405409fe1" }, "__v" : 0 },
{ "_id" : { "$oid" : "53945ec0353ef8901d58a16d" }, "__v" : 0 },
{ "_id" : { "$oid" : "53953814f4088ef517c79cda" }, "__v" : 0 },
{ "_id" : { "$oid" : "5395542c84fbdcaf1c8d09fa" }, "__v" : 0 },
{ "_id" : { "$oid" : "5395c4b0448213584d5997df" }, "__v" : 0 },
{ "_id" : { "$oid" : "5396a132000cbfa71d9110be" }, "__v" : 0 },
{ "ClientName" : "Rich Agren", "ClientEmail" : "", "Clientbudget" : 17, "ClientSkype" : "", "Clienthistory" : "102 jobs posted by client and has spent more then 20000$", "_id" : { "$oid" : "5396ff4a000cbfa71d9110f0" }, "__v" : 0 },
{ "_id" : { "$oid" : "5397239f012c745c7652eefa" }, "__v" : 0 },
{ "_id" : { "$oid" : "5397d8008d7f7af834f332f3" }, "__v" : 0 },
{ "_id" : { "$oid" : "5397d87aab19817035752701" }, "__v" : 0 },
{ "ClientName" : "Sachin Sharma", "ClientEmail" : "", "Clientbudget" : 17, "ClientSkype" : "", "Clienthistory" : "102 jobs posted", "_id" : { "$oid" : "5397d9ebab19817035752703" }, "__v" : 0 },
{ "ClientName" : "Rich Agren", "ClientEmail" : "", "Clientbudget" : 17, "ClientSkype" : "", "Clienthistory" : "102 jobs posted", "_id" : { "$oid" : "5397dce5ab19817035752706" }, "__v" : 0 },
{ "ClientName" : "Sam", "ClientEmail" : "", "Clientbudget" : 20, "ClientSkype" : "", "Clienthistory" : "Nope", "_id" : { "$oid" : "5397de8eab19817035752709" }, "__v" : 0 },
{ "_id" : { "$oid" : "5397f2b52c8353ed43bd71f8" }, "__v" : 0 },
{ "ClientName" : "Sachin", "ClientEmail" : "", "Clientbudget" : 78, "ClientSkype" : "", "Clienthistory" : "102 jobs posted by client and has spent more than 20000 $", "_id" : { "$oid" : "5397fe912c8353ed43bd71fc" }, "__v" : 0 },
{ "_id" : { "$oid" : "53982b50de43fd9a024b00f6" }, "__v" : 0 },
{ "_id" : { "$oid" : "53982b7303a019cf026b8193" }, "__v" : 0 },
{ "_id" : { "$oid" : "53982b81ae7f03f6020c7705" }, "__v" : 0 },
{ "_id" : { "$oid" : "53982c443743b6e7044a3e99" }, "__v" : 0 },
{ "_id" : { "$oid" : "53982ffcb778fac506f48438" }, "__v" : 0 },
{ "_id" : { "$oid" : "5398b679b0b5128442a4167a" }, "__v" : 0 },
{ "_id" : { "$oid" : "539926fc643da21e5c024bab" }, "__v" : 0 },
{ "_id" : { "$oid" : "5399f97c1d19860738afe592" }, "__v" : 0 },
{ "_id" : { "$oid" : "539a6a002e429bee4fa024a4" }, "__v" : 0 },
{ "_id" : { "$oid" : "539b0430de51c59722bbfb3a" }, "__v" : 0 },
{ "_id" : { "$oid" : "539b74b2ddc862b443589816" }, "__v" : 0 },
{ "_id" : { "$oid" : "539be534f86aadbf5b866653" }, "__v" : 0 },
{ "_id" : { "$oid" : "539c55b6580b375073f1f371" }, "__v" : 0 },
{ "_id" : { "$oid" : "539cc636a11b00a60cde8c39" }, "__v" : 0 },
{ "_id" : { "$oid" : "539d36b791e4bcd925cacf26" }, "__v" : 0 },
{ "_id" : { "$oid" : "539da737b3ea1e2c3e542b7f" }, "__v" : 0 },
{ "_id" : { "$oid" : "539e17b880b28ec3550f8c93" }, "__v" : 0 },
{ "_id" : { "$oid" : "539e883bcd641dfc7703bbe1" }, "__v" : 0 },
{ "_id" : { "$oid" : "539f51de008b4d525910af71" }, "__v" : 0 },
{ "_id" : { "$oid" : "539fc2625d1013687e8aba7c" }, "__v" : 0 },
{ "_id" : { "$oid" : "53a081ec66fc83497e07acfe" }, "__v" : 0 },
{ "_id" : { "$oid" : "53a0f26eb14b23fc1781dc40" }, "__v" : 0 },
{ "_id" : { "$oid" : "53a162f14afa880b4b68d40d" }, "__v" : 0 },
{ "ClientName" : "Eranga Kaneira", "ClientEmail" : "", "Clientbudget" : 4, "ClientSkype" : "", "Clienthistory" : "good client, Worked on different projects.", "_id" : { "$oid" : "53a17d074afa880b4b68d417" }, "__v" : 0 },
{ "ClientName" : "markl hudson", "ClientEmail" : "", "Clientbudget" : 1.5, "ClientSkype" : "", "Clienthistory" : "A very good client on odesk. have worked on many similar pojects.", "_id" : { "$oid" : "53a185524afa880b4b68d41b" }, "__v" : 0 },
{ "_id" : { "$oid" : "53a1d3742e8810d2723a235e" }, "__v" : 0 },
{ "_id" : { "$oid" : "53a243f6a05d3cdc0b87323c" }, "__v" : 0 },
{ "ClientName" : "zelda", "ClientEmail" : "", "Clientbudget" : 1200, "ClientSkype" : "", "Clienthistory" : "Average history, 50 % hiring and around $1k invested till now.", "_id" : { "$oid" : "53a27967a05d3cdc0b873241" }, "__v" : 0 },
{ "ClientName" : "ramaprasanna", "ClientEmail" : "", "Clientbudget" : 20, "ClientSkype" : "ramaprasanna", "Clienthistory" : "New client with very good communication and very interested to work with us.", "_id" : { "$oid" : "53a27da7a05d3cdc0b873246" }, "__v" : 0 },
{ "_id" : { "$oid" : "53a2b4797147dae93e2a03d1" }, "__v" : 0 },
{ "_id" : { "$oid" : "53a34d46a1ce05ff05845de1" }, "__v" : 0 },
{ "_id" : { "$oid" : "53a3bdcca644f54d29ee0bf4" }, "__v" : 0 },
{ "ClientName" : "Bryan Avery", "ClientEmail" : "", "Clientbudget" : 15, "ClientSkype" : "coppermill", "Clienthistory" : "Client is new on Skype, good investment, good hourly rate", "_id" : { "$oid" : "53a3e03da644f54d29ee0bfb" }, "__v" : 0 },
{ "_id" : { "$oid" : "53a47ce75400b6d82fa96ecf" }, "__v" : 0 },
{ "_id" : { "$oid" : "53a4ed7435ea36b3485e093c" }, "__v" : 0 },
{ "_id" : { "$oid" : "53a5c24afc923a0b7c9559f6" }, "__v" : 0 },
{ "_id" : { "$oid" : "53a632ccc3dac337152b1620" }, "__v" : 0 },
{ "_id" : { "$oid" : "53a6a34fd1656dd52d6562db" }, "__v" : 0 },
{ "_id" : { "$oid" : "53a713d2cd13e6904423133d" }, "__v" : 0 },
{ "_id" : { "$oid" : "53a78452216486de5af22580" }, "__v" : 0 },
{ "ClientName" : "Akhil Lodha", "ClientEmail" : "", "Clientbudget" : 20, "ClientSkype" : "lodha.akhil", "Clienthistory" : "New client with high hourly rates. ($25)", "_id" : { "$oid" : "53a7c06a216486de5af22583" }, "__v" : 0 },
{ "_id" : { "$oid" : "53a845105c68bb7f3d32f18e" }, "__v" : 0 },
{ "_id" : { "$oid" : "53a8b592ba968f8f59b49dee" }, "__v" : 0 },
{ "ClientName" : "James Pattison", "ClientEmail" : "", "Clientbudget" : 16, "ClientSkype" : "", "Clienthistory" : "Client's reviews are okay. New for python project, and has not spend much in past.", "_id" : { "$oid" : "53a92404ba968f8f59b49df6" }, "__v" : 0 },
{ "_id" : { "$oid" : "53a92615b764138e1984641c" }, "__v" : 0 },
{ "_id" : { "$oid" : "53a99a608fceb6915501c45c" }, "__v" : 0 },
{ "_id" : { "$oid" : "53aa0ae1634c22b972821f24" }, "__v" : 0 },
{ "_id" : { "$oid" : "53aa7b64098cb17642c2c4b3" }, "__v" : 0 },
{ "_id" : { "$oid" : "53aaebe7c4d4aa6a085b9d0d" }, "__v" : 0 },
{ "_id" : { "$oid" : "53ab5c69e3aa9d9a20a55ffa" }, "__v" : 0 },
{ "_id" : { "$oid" : "53abccedaff94e5b6122cd3f" }, "__v" : 0 },
{ "_id" : { "$oid" : "53ac3d70bd936c6e2b4723ef" }, "__v" : 0 },
{ "_id" : { "$oid" : "53acadf2cfc84ba145ada4e8" }, "__v" : 0 },
{ "ClientName" : "Nick", "ClientEmail" : "", "Clientbudget" : 13.5, "ClientSkype" : "twenty-10", "Clienthistory" : "Average client, some of reviews are not in the favour of client.", "_id" : { "$oid" : "53ad11d5cfc84ba145ada4f0" }, "__v" : 0 },
{ "ClientName" : "Lucas McEntee", "ClientEmail" : "", "Clientbudget" : 4, "ClientSkype" : "", "Clienthistory" : "A good client, spend over $6200.", "_id" : { "$oid" : "53ad12aecfc84ba145ada4f2" }, "__v" : 0 },
{ "_id" : { "$oid" : "53ad1e75e1fd6be271768c3b" }, "__v" : 0 },
{ "ClientName" : "Gil", "ClientEmail" : "", "Clientbudget" : 1000, "ClientSkype" : "", "Clienthistory" : "A very good client, has a very good History. Spend more then $20,000.", "_id" : { "$oid" : "53ad22c1e1fd6be271768c3c" }, "__v" : 0 },
{ "ClientName" : "Jason Hall", "ClientEmail" : "", "Clientbudget" : 23, "ClientSkype" : "", "Clienthistory" : "A very good client over all.", "_id" : { "$oid" : "53ad49c2e1fd6be271768c48" }, "__v" : 0 },
{ "_id" : { "$oid" : "53ad8ef7db8999632d66220e" }, "__v" : 0 },
{ "_id" : { "$oid" : "53adff78d3b8c186440fd303" }, "__v" : 0 },
{ "_id" : { "$oid" : "53ae6ffb06df194f60f44dee" }, "__v" : 0 },
{ "_id" : { "$oid" : "53aee07ce5f6ae09789dff7a" }, "__v" : 0 },
{ "_id" : { "$oid" : "53af50fd913211c911b8d7ae" }, "__v" : 0 },
{ "_id" : { "$oid" : "53afc17f2f8998bf2aea078c" }, "__v" : 0 },
{ "_id" : { "$oid" : "53b032014e23986c42af81bc" }, "__v" : 0 },
{ "_id" : { "$oid" : "53b0a282a6793b145a09a38d" }, "__v" : 0 },
{ "ClientName" : "Jonas Christoffersen", "ClientEmail" : "", "Clientbudget" : 1000, "ClientSkype" : "", "Clienthistory" : "New to odesk and spent $444 in total.", "_id" : { "$oid" : "53b11124a6793b145a09a399" }, "__v" : 0 },
{ "_id" : { "$oid" : "53b181ed247acb664eaa85dd" }, "__v" : 0 },
{ "_id" : { "$oid" : "53b203bda242265f6db6c8d7" }, "__v" : 0 },
{ "_id" : { "$oid" : "53b27ae6fdae3e2e23ada45d" }, "__v" : 0 },
{ "_id" : { "$oid" : "53b347bbd72d461964d6717c" }, "__v" : 0 },
{ "ClientName" : "Aryeh Rifkin", "ClientEmail" : "", "Clientbudget" : 12, "ClientSkype" : "", "Clienthistory" : "A very good client, Spent more then $40,000", "_id" : { "$oid" : "53b3a528d72d461964d67184" }, "__v" : 0 },
{ "_id" : { "$oid" : "53b3b5a8854c8aa6102178b5" }, "__v" : 0 },
{ "_id" : { "$oid" : "53b4643b95aad6b05d1ce3d1" }, "__v" : 0 },
{ "ClientName" : "Young Park", "ClientEmail" : "", "Clientbudget" : 17, "ClientSkype" : "", "Clienthistory" : "(5.00) 2 reviews, good client", "_id" : { "$oid" : "53b4f9b995aad6b05d1ce3d9" }, "__v" : 0 },
{ "ClientName" : "Matthew Marsille", "ClientEmail" : "", "Clientbudget" : 13, "ClientSkype" : "", "Clienthistory" : "Average client", "_id" : { "$oid" : "53b4fac895aad6b05d1ce3db" }, "__v" : 0 },
{ "ClientName" : "Paal Christian Thorsen", "ClientEmail" : "", "Clientbudget" : 1945, "ClientSkype" : "", "Clienthistory" : "Good client", "_id" : { "$oid" : "53b4fbfa95aad6b05d1ce3dd" }, "__v" : 0 },
{ "_id" : { "$oid" : "53b53e8eb13efcec3836cffa" }, "__v" : 0 },
{ "_id" : { "$oid" : "53b5af11818adf8f60d6e481" }, "__v" : 0 },
{ "ClientName" : "Gaylen Brown", "ClientEmail" : "", "Clientbudget" : 13.33, "ClientSkype" : "", "Clienthistory" : "New to Odesk and have 2 hourly projects going on.", "_id" : { "$oid" : "53b61f51818adf8f60d6e488" }, "__v" : 0 },
{ "_id" : { "$oid" : "53b688d7019589093c142b99" }, "__v" : 0 },
{ "_id" : { "$oid" : "53b74b0193e01bcd7abff22a" }, "__v" : 0 },
{ "_id" : { "$oid" : "53b7bb8625026b45362f0379" }, "__v" : 0 },
{ "_id" : { "$oid" : "53b82c094090285b76156c9f" }, "__v" : 0 },
{ "_id" : { "$oid" : "53b8a143abbe46a81084b0e4" }, "__v" : 0 },
{ "_id" : { "$oid" : "53b911c6843042dc3256711a" }, "__v" : 0 },
{ "_id" : { "$oid" : "53b98248a54b3deb53207198" }, "__v" : 0 },
{ "_id" : { "$oid" : "53b9f2c888601c7a6c52fbf9" }, "__v" : 0 },
{ "ClientName" : "Zhang Yan", "ClientEmail" : "", "Clientbudget" : 22, "ClientSkype" : "Zhang Yan", "Clienthistory" : "Good client", "_id" : { "$oid" : "53ba836088601c7a6c52fc0e" }, "__v" : 0 },
{ "_id" : { "$oid" : "53bab2445845779d49d64412" }, "__v" : 0 },
{ "_id" : { "$oid" : "53bb46b0bbf50f0c6fdc2c0e" }, "__v" : 0 },
{ "_id" : { "$oid" : "53bbd5301cf08680248257dd" }, "__v" : 0 },
{ "_id" : { "$oid" : "53bc45b22de513de439161fa" }, "__v" : 0 },
{ "_id" : { "$oid" : "53bcb6355921927260715375" }, "__v" : 0 },
{ "_id" : { "$oid" : "53bd5788602cc330398650f7" }, "__v" : 0 },
{ "_id" : { "$oid" : "53bdd841c67563435626f01d" }, "__v" : 0 },
{ "_id" : { "$oid" : "53be87a44e57ef0f2ae4bc43" }, "__v" : 0 },
{ "_id" : { "$oid" : "53befed4f754868558b14662" }, "__v" : 0 },
{ "_id" : { "$oid" : "53bf6f5930c1dbc57d3cab57" }, "__v" : 0 },
{ "ClientName" : "sachin", "ClientEmail" : "", "Clientbudget" : 445654, "ClientSkype" : "", "Clienthistory" : "SD", "_id" : { "$oid" : "53bfe30930c1dbc57d3cab72" }, "__v" : 0 },
{ "_id" : { "$oid" : "53bff52ed210d9634cb48e24" }, "__v" : 0 },
{ "_id" : { "$oid" : "53c065b0ad4d5c83666e2cba" }, "__v" : 0 },
{ "_id" : { "$oid" : "53c0d633834122137f2c5a94" }, "__v" : 0 },
{ "_id" : { "$oid" : "53c146b539cae4261adcfaf8" }, "__v" : 0 },
{ "_id" : { "$oid" : "53c1b736b037afa8380a5adb" }, "__v" : 0 },
{ "_id" : { "$oid" : "53c227b921b3a432589ed6d6" }, "__v" : 0 },
{ "_id" : { "$oid" : "53c2983b913e665d79ad2423" }, "__v" : 0 },
{ "_id" : { "$oid" : "53c308bc4ece907321e41197" }, "__v" : 0 },
{ "_id" : { "$oid" : "53c3c67123cca95d6c6d5e03" }, "__v" : 0 },
{ "_id" : { "$oid" : "53c43e87698b41650d3a60f9" }, "__v" : 0 },
{ "_id" : { "$oid" : "53c51793a3be6ded67889534" }, "__v" : 0 },
{ "_id" : { "$oid" : "53c58817c9e1a21e0f67656c" }, "__v" : 0 },
{ "_id" : { "$oid" : "53c669033434b7e401b1cd20" }, "__v" : 0 },
{ "_id" : { "$oid" : "53c6d987fe927be82ac70700" }, "__v" : 0 },
{ "_id" : { "$oid" : "53c7a72e8303b0a07d4b9082" }, "__v" : 0 },
{ "_id" : { "$oid" : "53c85901115660a9361363b2" }, "__v" : 0 },
{ "_id" : { "$oid" : "53c911c7f116f85d0f143207" }, "__v" : 0 },
{ "_id" : { "$oid" : "53c9824a4bdb137034ce6b44" }, "__v" : 0 },
{ "_id" : { "$oid" : "53c9f2cdde4b03c750319b25" }, "__v" : 0 },
{ "_id" : { "$oid" : "53ca3c7b89fad7bb0fe411f6" }, "__v" : 0 },
{ "_id" : { "$oid" : "53ca3f7d0969aa1e236ad95a" }, "__v" : 0 },
{ "_id" : { "$oid" : "53cab278e16a4b785591e6c2" }, "__v" : 0 },
{ "_id" : { "$oid" : "53cb22f81b9a36526d979bc6" }, "__v" : 0 },
{ "_id" : { "$oid" : "53cb93796d120557079d1e58" }, "__v" : 0 },
{ "_id" : { "$oid" : "53cc03fa7a522c6f1f12877a" }, "__v" : 0 },
{ "_id" : { "$oid" : "53cc747a55b330ab350b3f80" }, "__v" : 0 },
{ "_id" : { "$oid" : "53cd4dfb6e5ff8f51efd8d33" }, "__v" : 0 },
{ "_id" : { "$oid" : "53cdbe7df31d3e0a37913d7d" }, "__v" : 0 },
{ "_id" : { "$oid" : "53ce55fd804a02e809b99f6c" }, "__v" : 0 },
{ "_id" : { "$oid" : "53cec67f9b13f0ee358a09b1" }, "__v" : 0 },
{ "_id" : { "$oid" : "53cf37028ac52e77518da381" }, "__v" : 0 },
{ "_id" : { "$oid" : "53cfca30f8d7c8f637c4c31b" }, "__v" : 0 },
{ "_id" : { "$oid" : "53d03ab347edbd055b92ff7a" }, "__v" : 0 },
{ "_id" : { "$oid" : "53d1032e5a9583a427bd8d92" }, "__v" : 0 },
{ "_id" : { "$oid" : "53d173b0da8f9c6a51ac3cbe" }, "__v" : 0 },
{ "_id" : { "$oid" : "53d2472f8b64b22a48fbb270" }, "__v" : 0 },
{ "_id" : { "$oid" : "53d2b7b1d2cb23797827461f" }, "__v" : 0 },
{ "_id" : { "$oid" : "53d32834f1245eda1360a677" }, "__v" : 0 },
{ "_id" : { "$oid" : "53d398b6136bc8022cb6699c" }, "__v" : 0 },
{ "_id" : { "$oid" : "53d409368219708248c786c6" }, "__v" : 0 },
{ "_id" : { "$oid" : "53d479b7fc2576636755a7dd" }, "__v" : 0 },
{ "_id" : { "$oid" : "53d4ea3787a4175f7f92bfee" }, "__v" : 0 },
{ "_id" : { "$oid" : "53d55ab8cc8aa8b524102cf7" }, "__v" : 0 },
{ "_id" : { "$oid" : "53d6208e7a05e4596796dfb0" }, "__v" : 0 },
{ "_id" : { "$oid" : "53d691116ace9963277713cc" }, "__v" : 0 },
{ "_id" : { "$oid" : "53d70193437115393f4396e4" }, "__v" : 0 },
{ "_id" : { "$oid" : "53d71b3ffd155b930b083947" }, "__v" : 0 },
{ "_id" : { "$oid" : "53d7e57b8b695b0623342de8" }, "__v" : 0 },
{ "_id" : { "$oid" : "53d855fd8a4392cc3b1d6827" }, "__v" : 0 },
{ "_id" : { "$oid" : "53d936dd2492a55138c69627" }, "__v" : 0 },
{ "_id" : { "$oid" : "53d9a75f451ad08f4eb8d814" }, "__v" : 0 },
{ "_id" : { "$oid" : "53da55c4081cdffd3bb5546e" }, "__v" : 0 },
{ "_id" : { "$oid" : "53dac6469df662f45299b448" }, "__v" : 0 },
{ "ClientName" : "Sachin", "ClientEmail" : "sachin@gmail.com", "Clientbudget" : 67889, "ClientSkype" : "", "Clienthistory" : "nope", "_id" : { "$oid" : "53db368a9df662f45299b45a" }, "__v" : 0 },
{ "_id" : { "$oid" : "53dba607828672f65356fcc3" }, "__v" : 0 },
{ "_id" : { "$oid" : "53dc1689d39121536d8db1ed" }, "__v" : 0 },
{ "_id" : { "$oid" : "53dc870b3fe40d8a08780958" }, "__v" : 0 },
{ "_id" : { "$oid" : "53dcf78dbcc58f911e17dda1" }, "__v" : 0 },
{ "_id" : { "$oid" : "53dd680eff61029a34cb6ad7" }, "__v" : 0 },
{ "_id" : { "$oid" : "53ddd88e040423ac4b9d198b" }, "__v" : 0 },
{ "_id" : { "$oid" : "53de490ed44be53f6f87b1f7" }, "__v" : 0 },
{ "_id" : { "$oid" : "53deb98ff47dafcf06571e00" }, "__v" : 0 },
{ "_id" : { "$oid" : "53df9715d3d98944669daadf" }, "__v" : 0 },
{ "_id" : { "$oid" : "53dfa26356d665470bbdb70d" }, "__v" : 0 },
{ "_id" : { "$oid" : "53dfa47bc061db931b390a35" }, "__v" : 0 },
{ "_id" : { "$oid" : "53e014fca4e2c8ab34462a94" }, "__v" : 0 },
{ "_id" : { "$oid" : "53e0e0da873372b11c861439" }, "__v" : 0 },
{ "_id" : { "$oid" : "53e1515c9668314d3ccfb360" }, "__v" : 0 },
{ "_id" : { "$oid" : "53e228847c7a37fb11520738" }, "__v" : 0 },
{ "_id" : { "$oid" : "53e29fe4088b0c92467efeaf" }, "__v" : 0 },
{ "_id" : { "$oid" : "53e371d580c3abe84d3f1574" }, "__v" : 0 },
{ "_id" : { "$oid" : "53e440d09337e2fd202dd53f" }, "__v" : 0 },
{ "_id" : { "$oid" : "53e51425a11b544d271409d5" }, "__v" : 0 },
{ "_id" : { "$oid" : "53e584b21b6d8179429a4adc" }, "__v" : 0 },
{ "_id" : { "$oid" : "53e6335f19ab6a597481275c" }, "__v" : 0 },
{ "_id" : { "$oid" : "53e6a3e0fcbc4ffc0e5fcf99" }, "__v" : 0 },
{ "_id" : { "$oid" : "53e714630d40fdc62a3813c6" }, "__v" : 0 },
{ "_id" : { "$oid" : "53e784e47566df5945a00855" }, "__v" : 0 },
{ "_id" : { "$oid" : "53e7f56563950e115f0b2f2c" }, "__v" : 0 },
{ "_id" : { "$oid" : "53e8b10598aa7f35368165b1" }, "__v" : 0 },
{ "_id" : { "$oid" : "53e908b3940916b00b1c5270" }, "__v" : 0 },
{ "_id" : { "$oid" : "53e9793cb5a9db8423a5bd97" }, "__v" : 0 },
{ "_id" : { "$oid" : "53ea56e7b7586e2c7f08d985" }, "__v" : 0 },
{ "_id" : { "$oid" : "53eac7691bd51bb22371a9f6" }, "__v" : 0 },
{ "_id" : { "$oid" : "53eb88678b5211af22a939e1" }, "__v" : 0 },
{ "_id" : { "$oid" : "53ebf8e9afbe1d8c38e79f5b" }, "__v" : 0 },
{ "_id" : { "$oid" : "53ecc7431fbcfd4a1128a518" }, "__v" : 0 },
{ "_id" : { "$oid" : "53ed37cd9cf27ca43232bbb2" }, "__v" : 0 },
{ "_id" : { "$oid" : "53eda85185a383f04cd6e891" }, "__v" : 0 },
{ "_id" : { "$oid" : "53ee18d2b586d1af7ab62b91" }, "__v" : 0 },
{ "_id" : { "$oid" : "53ee8953d41fbe1b1f9870a3" }, "__v" : 0 },
{ "_id" : { "$oid" : "53eef9d74c131c6b41302b29" }, "__v" : 0 },
{ "_id" : { "$oid" : "53ef6a5bd6ce93ad16aec29c" }, "__v" : 0 },
{ "_id" : { "$oid" : "53efdadd0f1d93fe2e7c4894" }, "__v" : 0 },
{ "_id" : { "$oid" : "53f04b60b3ff3ece45ef3b75" }, "__v" : 0 },
{ "_id" : { "$oid" : "53f0bbe28a90ab695b496794" }, "__v" : 0 },
{ "_id" : { "$oid" : "53f12c63f460cb30742a994c" }, "__v" : 0 },
{ "_id" : { "$oid" : "53f19ce6713f75dd21a21ae1" }, "__v" : 0 },
{ "_id" : { "$oid" : "53f1dc0e3b5c51146c52b697" }, "__v" : 0 },
{ "_id" : { "$oid" : "53f1dc2e27f5ad446c5f5a77" }, "__v" : 0 },
{ "_id" : { "$oid" : "53f2ac4964799c4035e2a4ec" }, "__v" : 0 },
{ "_id" : { "$oid" : "53f32c0a1bea878a68c8f34a" }, "__v" : 0 },
{ "_id" : { "$oid" : "53f3f14d992b86a72f690769" }, "__v" : 0 },
{ "_id" : { "$oid" : "53f49203585b57387ae7adb5" }, "__v" : 0 },
{ "_id" : { "$oid" : "53f502885973d3a5333882db" }, "__v" : 0 },
{ "_id" : { "$oid" : "53f5de2cbca03e390b488edb" }, "__v" : 0 },
{ "_id" : { "$oid" : "53f64eafb9e34beb3b18873a" }, "__v" : 0 },
{ "_id" : { "$oid" : "53f6bf33a0dc1bbc5320eb2b" }, "__v" : 0 },
{ "_id" : { "$oid" : "53f75c51c7e5bd9d4e9eec0b" }, "__v" : 0 },
{ "_id" : { "$oid" : "53f7f94963bbf008023aa9b3" }, "__v" : 0 },
{ "_id" : { "$oid" : "53f869cce854a8a41febaa4a" }, "__v" : 0 },
{ "_id" : { "$oid" : "53f8da4e0716f31b34360b1e" }, "__v" : 0 },
{ "_id" : { "$oid" : "53f94acef39b3af051238588" }, "__v" : 0 },
{ "_id" : { "$oid" : "53f9bb52ba3a6696689f127f" }, "__v" : 0 },
{ "_id" : { "$oid" : "53fa2bd41c14d3187db1cc90" }, "__v" : 0 },
{ "_id" : { "$oid" : "53fa9c54526121f213753450" }, "__v" : 0 },
{ "_id" : { "$oid" : "53fb3252cba7526b7c0d367e" }, "__v" : 0 },
{ "_id" : { "$oid" : "53fba2d7b33b10bb7ed7ca9c" }, "__v" : 0 },
{ "_id" : { "$oid" : "53fc7ad0a33f80001b0bceb5" }, "__v" : 0 },
{ "_id" : { "$oid" : "53fceb54a5d2b1d853506d07" }, "__v" : 0 },
{ "_id" : { "$oid" : "53fdc8a0d900de834e0aff6c" }, "__v" : 0 },
{ "_id" : { "$oid" : "53fe3926f21b5d452416945a" }, "__v" : 0 },
{ "_id" : { "$oid" : "53fea9aba2f8c5913c65446e" }, "__v" : 0 },
{ "_id" : { "$oid" : "53ff3a8c8da46684395c0656" }, "__v" : 0 },
{ "_id" : { "$oid" : "53ffe5783e01061e698a77dc" }, "__v" : 0 },
{ "_id" : { "$oid" : "54007982f760978f5bd3451d" }, "__v" : 0 },
{ "_id" : { "$oid" : "5400ea0b6ab87762048138be" }, "__v" : 0 },
{ "_id" : { "$oid" : "540154eab3c9382d1039563e" }, "__v" : 0 },
{ "_id" : { "$oid" : "5401efe5d240abab11b37ffe" }, "__v" : 0 },
{ "_id" : { "$oid" : "540275d66324119e30ba0f6b" }, "__v" : 0 },
{ "_id" : { "$oid" : "5402e6565f11d06a4bd1f89b" }, "__v" : 0 },
{ "_id" : { "$oid" : "540356d77fcbdc94644eaf9b" }, "__v" : 0 },
{ "_id" : { "$oid" : "5403dbf6870562e7041331cb" }, "__v" : 0 },
{ "_id" : { "$oid" : "54047a4f2066319b54a61f56" }, "__v" : 0 },
{ "_id" : { "$oid" : "5404ead180e9870e7d7ad19e" }, "__v" : 0 },
{ "_id" : { "$oid" : "5405b5c3fb5bd29a769cb9fd" }, "__v" : 0 },
{ "_id" : { "$oid" : "54062645e9b0808222e9d5c3" }, "__v" : 0 },
{ "_id" : { "$oid" : "540696c94ffd75fa443f5b4f" }, "__v" : 0 },
{ "_id" : { "$oid" : "540714a11b1c018c226d1839" }, "__v" : 0 },
{ "_id" : { "$oid" : "5407852719e57b5259ae5574" }, "__v" : 0 },
{ "_id" : { "$oid" : "54085a5ff79222c96725ac5d" }, "__v" : 0 },
{ "_id" : { "$oid" : "5408cae4269cb3fb2a0456da" }, "__v" : 0 },
{ "_id" : { "$oid" : "54099946ac44ed190b5a1de5" }, "__v" : 0 },
{ "_id" : { "$oid" : "540a133f773b868572e79f48" }, "__v" : 0 },
{ "_id" : { "$oid" : "540a83c360af4a721047f1e8" }, "__v" : 0 },
{ "_id" : { "$oid" : "540af5f6c3a52fb069e21387" }, "__v" : 0 },
{ "_id" : { "$oid" : "540b8f2896da14b1242c8e5b" }, "__v" : 0 },
{ "_id" : { "$oid" : "540bffb1b5ac8bd83c768e3f" }, "__v" : 0 },
{ "_id" : { "$oid" : "540c98ca550883d5760c568e" }, "__v" : 0 },
{ "_id" : { "$oid" : "540d094baa01f2cf106173de" }, "__v" : 0 },
{ "_id" : { "$oid" : "540d44e04c87db5210160ab7" }, "__v" : 0 },
{ "_id" : { "$oid" : "540db56c3828e24157db0373" }, "__v" : 0 },
{ "_id" : { "$oid" : "540e25ee1f2ec0e97a304330" }, "__v" : 0 },
{ "_id" : { "$oid" : "540fed94b410de90065932c5" }, "__v" : 0 },
{ "_id" : { "$oid" : "541063ae22c9385f3351b639" }, "__v" : 0 },
{ "_id" : { "$oid" : "5410d462668085eb6cd91006" }, "__v" : 0 },
{ "_id" : { "$oid" : "54119ed19cb3db8814ecd719" }, "__v" : 0 },
{ "_id" : { "$oid" : "54120f54547e87014dc1e4dd" }, "__v" : 0 },
{ "_id" : { "$oid" : "54127fd7878c2ac86d289217" }, "__v" : 0 },
{ "_id" : { "$oid" : "5412f35e3a84efcc5a6dc3e9" }, "__v" : 0 },
{ "_id" : { "$oid" : "541363e2e3ee1ccb106d01d5" }, "__v" : 0 },
{ "_id" : { "$oid" : "5413d4669d5bb01c2798307f" }, "__v" : 0 },
{ "_id" : { "$oid" : "541444e857146a8a3f3a1c5b" }, "__v" : 0 },
{ "_id" : { "$oid" : "5414b5684de550a25474c3b2" }, "__v" : 0 },
{ "_id" : { "$oid" : "541525e9b9dac26d6bb3c1a9" }, "__v" : 0 },
{ "_id" : { "$oid" : "5415966975ec3d7804014817" }, "__v" : 0 },
{ "_id" : { "$oid" : "541606ea95eff9301b2205a1" }, "__v" : 0 },
{ "_id" : { "$oid" : "5416d76b04c02bef7546c79d" }, "__v" : 0 },
{ "_id" : { "$oid" : "541747ef9cbb373f2e16d46c" }, "__v" : 0 },
{ "_id" : { "$oid" : "5417b874a1b87a97482b66de" }, "__v" : 0 },
{ "_id" : { "$oid" : "54184e2dbeeb1af63495c577" }, "__v" : 0 },
{ "_id" : { "$oid" : "5418beaebf3f2ec04d8d6630" }, "__v" : 0 },
{ "_id" : { "$oid" : "54197a54ca76ee412e37d889" }, "__v" : 0 },
{ "_id" : { "$oid" : "541a1995bc270770653b8abe" }, "__v" : 0 },
{ "_id" : { "$oid" : "541acd47a3a763934264e627" }, "__v" : 0 },
{ "_id" : { "$oid" : "541b3dcbc64980f37394483d" }, "__v" : 0 },
{ "_id" : { "$oid" : "541c1c057cdddc294b99c608" }, "__v" : 0 },
{ "_id" : { "$oid" : "541ccd7c292c51c71390df77" }, "__v" : 0 },
{ "_id" : { "$oid" : "541d77c398f2f9716613cb97" }, "__v" : 0 },
{ "_id" : { "$oid" : "541de84655142cc30650a73a" }, "__v" : 0 },
{ "_id" : { "$oid" : "541e58c64c6e682426a1e142" }, "__v" : 0 },
{ "_id" : { "$oid" : "541ec94ce39d9e7841bdce37" }, "__v" : 0 },
{ "_id" : { "$oid" : "541f39cce32a3ef85b60789f" }, "__v" : 0 },
{ "_id" : { "$oid" : "541faa5219d1736d7ec7a203" }, "__v" : 0 },
{ "_id" : { "$oid" : "54203579e702181d57cf0bb3" }, "__v" : 0 },
{ "_id" : { "$oid" : "5420ea2ffd6ce1d109bfc2bf" }, "__v" : 0 },
{ "_id" : { "$oid" : "54218b3fa95b4e5a6aa74932" }, "__v" : 0 },
{ "_id" : { "$oid" : "54222420e7831b220ef69f14" }, "__v" : 0 },
{ "_id" : { "$oid" : "5422b91bb082aff9798f1083" }, "__v" : 0 },
{ "_id" : { "$oid" : "5423299e2cd055c6277d51db" }, "__v" : 0 },
{ "_id" : { "$oid" : "5424034805d108a135aa012b" }, "__v" : 0 },
{ "_id" : { "$oid" : "542473cc530739086a9a069a" }, "__v" : 0 },
{ "_id" : { "$oid" : "54254e7cea26ac3d6488cc0a" }, "__v" : 0 },
{ "_id" : { "$oid" : "5425bf04143ece2216a86f58" }, "__v" : 0 },
{ "_id" : { "$oid" : "54262f89214af1c1319a7efb" }, "__v" : 0 },
{ "_id" : { "$oid" : "5428f0fa62702757131dd0f0" }, "__v" : 0 },
{ "_id" : { "$oid" : "54296341065a51e94fc0437d" }, "__v" : 0 },
{ "_id" : { "$oid" : "542a33cc926c43e5057afbc4" }, "__v" : 0 },
{ "_id" : { "$oid" : "542acb9031f3e18c7ed82e30" }, "__v" : 0 },
{ "_id" : { "$oid" : "542b64b88de2d3191d26e36a" }, "__v" : 0 },
{ "_id" : { "$oid" : "542c3b4c2734c6d0168dfd5c" }, "__v" : 0 },
{ "_id" : { "$oid" : "542cabceb03809a12b15ea65" }, "__v" : 0 },
{ "_id" : { "$oid" : "542d1c58b390884a6dd8c414" }, "__v" : 0 },
{ "_id" : { "$oid" : "542df59a0bf17eef33c09321" }, "__v" : 0 },
{ "_id" : { "$oid" : "542ec74d132c02ce50fd9227" }, "__v" : 0 },
{ "_id" : { "$oid" : "542f37d064221d9a657eb4f5" }, "__v" : 0 },
{ "_id" : { "$oid" : "542fa852aa3591e07c102963" }, "__v" : 0 },
{ "_id" : { "$oid" : "543018d39cda4caf14a06424" }, "__v" : 0 },
{ "_id" : { "$oid" : "54308954ff7112b1299cad1b" }, "__v" : 0 },
{ "_id" : { "$oid" : "5430f9d4df01ba4741fb2307" }, "__v" : 0 },
{ "_id" : { "$oid" : "54316a55b753b341577c0ce9" }, "__v" : 0 },
{ "_id" : { "$oid" : "5431dad577e269466cfd5e81" }, "__v" : 0 },
{ "_id" : { "$oid" : "5432a790458214c8758ea104" }, "__v" : 0 },
{ "_id" : { "$oid" : "543318127dedc4c90c32681e" }, "__v" : 0 },
{ "_id" : { "$oid" : "5433bd598a669bf459ba5769" }, "__v" : 0 },
{ "_id" : { "$oid" : "54342ddb192ab2d50d0be21b" }, "__v" : 0 },
{ "_id" : { "$oid" : "54349e5b4133d561234cc0cc" }, "__v" : 0 },
{ "_id" : { "$oid" : "54350edf7af0e45d55ac83cd" }, "__v" : 0 },
{ "_id" : { "$oid" : "5435d6147a6ab02411a2a393" }, "__v" : 0 },
{ "_id" : { "$oid" : "54364698ca3bc78f4d4e8efb" }, "__v" : 0 },
{ "_id" : { "$oid" : "5436b71b3f0aba2f328ec23c" }, "__v" : 0 },
{ "_id" : { "$oid" : "5437279b3d3a7bb349c7d0b4" }, "__v" : 0 },
{ "_id" : { "$oid" : "543792354abcad851769ae3d" }, "__v" : 0 },
{ "_id" : { "$oid" : "5437ced388d54fc00f353884" }, "__v" : 0 },
{ "_id" : { "$oid" : "54383f537ec207f54a13db3e" }, "__v" : 0 },
{ "_id" : { "$oid" : "5438afd481b7595d60976b23" }, "__v" : 0 },
{ "_id" : { "$oid" : "543920540320233475eba600" }, "__v" : 0 },
{ "_id" : { "$oid" : "543990d5af7748420d54657f" }, "__v" : 0 },
{ "_id" : { "$oid" : "543a0155856eb3f72760045e" }, "__v" : 0 },
{ "_id" : { "$oid" : "543b4cf0f70b2d614ee59436" }, "__v" : 0 },
{ "_id" : { "$oid" : "543c2422a8b768a74b7d8810" }, "__v" : 0 },
{ "_id" : { "$oid" : "543cf577d5732e542291b2d5" }, "__v" : 0 },
{ "_id" : { "$oid" : "543dc3f7b4a560fc68e3ef4a" }, "__v" : 0 },
{ "_id" : { "$oid" : "543e94a3e469b1d777b08a19" }, "__v" : 0 },
{ "_id" : { "$oid" : "543f0dbcf13ca7e9154ec9c4" }, "__v" : 0 },
{ "_id" : { "$oid" : "543fa0d49b6f19905fa5c437" }, "__v" : 0 },
{ "_id" : { "$oid" : "54405d85cb98252d1cb8ba97" }, "__v" : 0 },
{ "_id" : { "$oid" : "5440e78195c358ee5c5935b4" }, "__v" : 0 },
{ "_id" : { "$oid" : "54416006e2f7c3fe13df3c19" }, "__v" : 0 },
{ "_id" : { "$oid" : "544234c781ef23e070a30df9" }, "__v" : 0 },
{ "_id" : { "$oid" : "5442a54b41be4a9d4dd16017" }, "__v" : 0 },
{ "_id" : { "$oid" : "544315cea322029763c82486" }, "__v" : 0 },
{ "_id" : { "$oid" : "54438650a530fc567966e44b" }, "__v" : 0 },
{ "_id" : { "$oid" : "5443f6d2e875dcb411fc3b6d" }, "__v" : 0 },
{ "_id" : { "$oid" : "54446754bfd800c027946e96" }, "__v" : 0 },
{ "_id" : { "$oid" : "54452bf49f4301285786c486" }, "__v" : 0 },
{ "_id" : { "$oid" : "54459c76c003657d6f9a8daa" }, "__v" : 0 },
{ "_id" : { "$oid" : "544664672d3c21c254e8bd5f" }, "__v" : 0 },
{ "_id" : { "$oid" : "5446d4e9e46983b77936c96c" }, "__v" : 0 },
{ "_id" : { "$oid" : "54477bc06e6565e47f911dc8" }, "__v" : 0 },
{ "_id" : { "$oid" : "5447ec4257e3078738426ec5" }, "__v" : 0 },
{ "_id" : { "$oid" : "54485cc365bad49a4f64a486" }, "__v" : 0 },
{ "_id" : { "$oid" : "5448cd45c2944bdd68a92364" }, "__v" : 0 },
{ "_id" : { "$oid" : "54493dc852eb6bdb7e6e5253" }, "__v" : 0 },
{ "_id" : { "$oid" : "5449ae484ae74bd418b36f75" }, "__v" : 0 },
{ "_id" : { "$oid" : "544a1ecbad0942fc31f3225b" }, "__v" : 0 },
{ "_id" : { "$oid" : "544a8f4d83174240480d69ba" }, "__v" : 0 },
{ "_id" : { "$oid" : "544affcdeca9c4fd5de5af1c" }, "__v" : 0 },
{ "_id" : { "$oid" : "544b704f799fd42a761cf412" }, "__v" : 0 },
{ "_id" : { "$oid" : "544be0d1e3e4ee2b0e95c6aa" }, "__v" : 0 },
{ "_id" : { "$oid" : "544c5152781d73f023063c25" }, "__v" : 0 },
{ "_id" : { "$oid" : "544cc1d2e7f044e93a28e2e2" }, "__v" : 0 },
{ "_id" : { "$oid" : "544d32532cabe2c84fc7b9e2" }, "__v" : 0 },
{ "_id" : { "$oid" : "544da2d3d0ffa8e1687db85a" }, "__v" : 0 },
{ "_id" : { "$oid" : "544e6c065a9a594c53760b13" }, "__v" : 0 },
{ "_id" : { "$oid" : "544edc88e20e26ab68594538" }, "__v" : 0 },
{ "_id" : { "$oid" : "544fab7acfaf761e6230a540" }, "__v" : 0 },
{ "_id" : { "$oid" : "54501bfc8b4ee0f679c9dc6d" }, "__v" : 0 },
{ "_id" : { "$oid" : "5450e66a8d8c22d4110afd72" }, "__v" : 0 },
{ "_id" : { "$oid" : "5451b30a91f76e1f47609281" }, "__v" : 0 },
{ "_id" : { "$oid" : "54522391581df9ef24c30634" }, "__v" : 0 },
{ "_id" : { "$oid" : "5452c0bb19c19dcb7fd56ea1" }, "__v" : 0 },
{ "_id" : { "$oid" : "545392139f6a36d422d94843" }, "__v" : 0 },
{ "_id" : { "$oid" : "545402964bbc7a9f54680e35" }, "__v" : 0 },
{ "_id" : { "$oid" : "54547319de33913b3b6ae419" }, "__v" : 0 },
{ "_id" : { "$oid" : "54553beaa99e810b688bf943" }, "__v" : 0 },
{ "_id" : { "$oid" : "5455ac6e5f0b684307f5494d" }, "__v" : 0 },
{ "_id" : { "$oid" : "54561cf0e547adec1fafa1d5" }, "__v" : 0 },
{ "_id" : { "$oid" : "54568d70701428a047a149cf" }, "__v" : 0 },
{ "_id" : { "$oid" : "5456fdf390bd9d56712bf423" }, "__v" : 0 },
{ "_id" : { "$oid" : "54578b89a52229e554826cb6" }, "__v" : 0 },
{ "_id" : { "$oid" : "5457fc0e55967b1b79353264" }, "__v" : 0 },
{ "_id" : { "$oid" : "5458dc7984a5952451949986" }, "__v" : 0 },
{ "_id" : { "$oid" : "54596ac83492ecdf7d8f5d40" }, "__v" : 0 },
{ "_id" : { "$oid" : "545a2b13658dc7f076dc29a6" }, "__v" : 0 },
{ "_id" : { "$oid" : "545aacfcb943925b1de35997" }, "__v" : 0 },
{ "_id" : { "$oid" : "545b804844aa4e2162c89157" }, "__v" : 0 },
{ "_id" : { "$oid" : "545bfbb0492ceb8c19cb0983" }, "__v" : 0 },
{ "_id" : { "$oid" : "545ccb05c90d777b6ad83357" }, "__v" : 0 },
{ "_id" : { "$oid" : "545d3b8851d8a52127541716" }, "__v" : 0 },
{ "_id" : { "$oid" : "545dac0ca5e1203d506bab8a" }, "__v" : 0 },
{ "_id" : { "$oid" : "545e1c8ec0cfab2c7da84af1" }, "__v" : 0 },
{ "_id" : { "$oid" : "545e8d0fa42a3c1527ee131b" }, "__v" : 0 },
{ "_id" : { "$oid" : "545efd92a7ac9103512f630a" }, "__v" : 0 },
{ "_id" : { "$oid" : "545f6e156ecf33490e53ac22" }, "__v" : 0 },
{ "_id" : { "$oid" : "545fde95bacdf077354c74f2" }, "__v" : 0 },
{ "_id" : { "$oid" : "5460b72e7807fb5f657c34fa" }, "__v" : 0 },
{ "_id" : { "$oid" : "5461414b5301798a40565892" }, "__v" : 0 },
{ "_id" : { "$oid" : "5462180c04c251ad519fceee" }, "__v" : 0 },
{ "_id" : { "$oid" : "5462aa5cbb736ff0129fec20" }, "__v" : 0 },
{ "_id" : { "$oid" : "5463689355545dd6070e49f1" }, "__v" : 0 },
{ "_id" : { "$oid" : "5463d915edf7ffb5357b23e0" }, "__v" : 0 },
{ "_id" : { "$oid" : "5464b298bd532e9945b70b83" }, "__v" : 0 },
{ "_id" : { "$oid" : "546580e13b1235c838060583" }, "__v" : 0 },
{ "_id" : { "$oid" : "54698d545c05b9262141c15b" }, "__v" : 0 },
{ "_id" : { "$oid" : "546a13488530763001ddb1a8" }, "__v" : 0 },
{ "_id" : { "$oid" : "546a1369f7f0c66b01904bec" }, "__v" : 0 },
{ "_id" : { "$oid" : "546a1380307a689901c3e99c" }, "__v" : 0 },
{ "_id" : { "$oid" : "546a84907049208d4f443fe4" }, "__v" : 0 },
{ "_id" : { "$oid" : "546b5a8d1fadfce1575364d4" }, "__v" : 0 },
{ "_id" : { "$oid" : "546bcca28858a84f02b80db8" }, "__v" : 0 },
{ "_id" : { "$oid" : "546ca759d1c5f38472b66966" }, "__v" : 0 },
{ "_id" : { "$oid" : "546d4c2b357f26903e9a5fae" }, "__v" : 0 },
{ "_id" : { "$oid" : "546df28040e1cd8e4365ae4b" }, "__v" : 0 },
{ "_id" : { "$oid" : "546e6ce4385f9cbe1ec04d64" }, "__v" : 0 },
{ "_id" : { "$oid" : "546f470df624fff729111d28" }, "__v" : 0 },
{ "_id" : { "$oid" : "546fc37caf2316bf694ea06a" }, "__v" : 0 },
{ "_id" : { "$oid" : "54703405a28a777c1b082bcb" }, "__v" : 0 },
{ "_id" : { "$oid" : "5470a48723f3fcbe4d7a239b" }, "__v" : 0 },
{ "_id" : { "$oid" : "54711507b2d3438105d01f5b" }, "__v" : 0 },
{ "_id" : { "$oid" : "54718588f4898e6839918b5f" }, "__v" : 0 },
{ "_id" : { "$oid" : "5471f60f6a2c1e8d69ee2bc1" }, "__v" : 0 },
{ "_id" : { "$oid" : "54726691b7a579b52ccda2ef" }, "__v" : 0 },
{ "_id" : { "$oid" : "5473124c072a0c5a771884e7" }, "__v" : 0 },
{ "_id" : { "$oid" : "5473150d8eae85137e90d031" }, "__v" : 0 },
{ "_id" : { "$oid" : "54731526d355ba527ee94c17" }, "__v" : 0 },
{ "_id" : { "$oid" : "5473b102073af92f267fb400" }, "__v" : 0 },
{ "_id" : { "$oid" : "54741d4571378f792f18c028" }, "__v" : 0 },
{ "_id" : { "$oid" : "54741d69014c0f6930002c6e" }, "__v" : 0 },
{ "_id" : { "$oid" : "5474215df22e50bf3f7b21ab" }, "__v" : 0 },
{ "_id" : { "$oid" : "5474250d1d5ee9574923618f" }, "__v" : 0 },
{ "_id" : { "$oid" : "5474f31963d59e1f2238006c" }, "__v" : 0 },
{ "_id" : { "$oid" : "5475ab5ccb3f0fb70c6dedfe" }, "__v" : 0 },
{ "_id" : { "$oid" : "54767502751bdcfa45dc1b6c" }, "__v" : 0 },
{ "_id" : { "$oid" : "5477353dd83a044d38cbe552" }, "__v" : 0 },
{ "_id" : { "$oid" : "5477c3772972526d26eeef2e" }, "__v" : 0 },
{ "_id" : { "$oid" : "54787ceb616475100aa8ba09" }, "__v" : 0 },
{ "_id" : { "$oid" : "5478fc6cd921048b60e39d0f" }, "__v" : 0 },
{ "_id" : { "$oid" : "54797b085a84b0c3703bb4e5" }, "__v" : 0 },
{ "_id" : { "$oid" : "547a174f41132d9945632ec4" }, "__v" : 0 },
{ "_id" : { "$oid" : "547a87db692f73d377d5ef76" }, "__v" : 0 },
{ "_id" : { "$oid" : "547af868e0ad0a6e33a681ef" }, "__v" : 0 },
{ "_id" : { "$oid" : "547b68ef143c824759e0cca6" }, "__v" : 0 },
{ "_id" : { "$oid" : "547bd97021e3198b0a721511" }, "__v" : 0 },
{ "_id" : { "$oid" : "547c076beb4eac3622a2374a" }, "__v" : 0 },
{ "_id" : { "$oid" : "547d5c6513ce242e1b351543" }, "__v" : 0 },
{ "_id" : { "$oid" : "547eb6b5a2f8b40d382ecc84" }, "__v" : 0 },
{ "_id" : { "$oid" : "547f8cf3e02d584320e706ec" }, "__v" : 0 },
{ "_id" : { "$oid" : "548065fc42843baa6618d696" }, "__v" : 0 },
{ "_id" : { "$oid" : "5480e6be2b3561c04262858d" }, "__v" : 0 },
{ "_id" : { "$oid" : "5481b62e8de405ea69215b0d" }, "__v" : 0 },
{ "_id" : { "$oid" : "54823d80ac3bc1d75b031e56" }, "__v" : 0 },
{ "_id" : { "$oid" : "548313938e2faef01507c6d0" }, "__v" : 0 },
{ "_id" : { "$oid" : "548387e172bf56945de440fc" }, "__v" : 0 },
{ "_id" : { "$oid" : "5483f8667ea682701ce3a21a" }, "__v" : 0 },
{ "_id" : { "$oid" : "548468f4b2504fb861218347" }, "__v" : 0 },
{ "_id" : { "$oid" : "5484d986cdd7bae3558ac6a0" }, "__v" : 0 },
{ "_id" : { "$oid" : "5485a90891ef9bc704fc8606" }, "__v" : 0 },
{ "_id" : { "$oid" : "548642082ccd3f642a0d5bb5" }, "__v" : 0 },
{ "_id" : { "$oid" : "5486fb339204250a589b719c" }, "__v" : 0 },
{ "_id" : { "$oid" : "54878dc6cf93cc7612b58131" }, "__v" : 0 },
{ "_id" : { "$oid" : "54886cc7391cc2b051509335" }, "__v" : 0 },
{ "_id" : { "$oid" : "5488dd6e66fedbcc07017766" }, "__v" : 0 },
{ "_id" : { "$oid" : "5489a625018da04a31377156" }, "__v" : 0 },
{ "_id" : { "$oid" : "548a2641fe998b4b20880a07" }, "__v" : 0 },
{ "_id" : { "$oid" : "548b09a143e795954f125fbe" }, "__v" : 0 },
{ "_id" : { "$oid" : "548b7a715d8e1e25758d3e3a" }, "__v" : 0 },
{ "_id" : { "$oid" : "548beb054b2501567827100c" }, "__v" : 0 },
{ "_id" : { "$oid" : "548c5b94f0b9565129fabe83" }, "__v" : 0 },
{ "_id" : { "$oid" : "548ccc1c950de4f409affbd2" }, "__v" : 0 },
{ "_id" : { "$oid" : "548d3cb966b4fa1d301420e8" }, "__v" : 0 },
{ "_id" : { "$oid" : "548dad6063506f3a72d964bd" }, "__v" : 0 },
{ "_id" : { "$oid" : "548e1dff536a4a3367b68299" }, "__v" : 0 },
{ "_id" : { "$oid" : "548ee6e478fb21677a42e0b6" }, "__v" : 0 },
{ "_id" : { "$oid" : "548f5b2fd21d2fb52f802600" }, "__v" : 0 },
{ "_id" : { "$oid" : "549038cf27b2adb41e4faf93" }, "__v" : 0 },
{ "_id" : { "$oid" : "5490b84826ee273320636218" }, "__v" : 0 },
{ "_id" : { "$oid" : "5491294fad98570b0dc0e644" }, "__v" : 0 },
{ "_id" : { "$oid" : "54919a1cb3223ddd3ffa9739" }, "__v" : 0 },
{ "_id" : { "$oid" : "549223550f29986e7ece73fc" }, "__v" : 0 },
{ "_id" : { "$oid" : "5492e2dc1763e6a80e1b0f85" }, "__v" : 0 },
{ "_id" : { "$oid" : "5493658a504c09e94aa06a35" }, "__v" : 0 },
{ "_id" : { "$oid" : "54943384190a4d5645eb3cdb" }, "__v" : 0 },
{ "_id" : { "$oid" : "5494b548c93e20a4145afc41" }, "__v" : 0 },
{ "_id" : { "$oid" : "549591e169cf23555fa5bd93" }, "__v" : 0 },
{ "_id" : { "$oid" : "5496027cd969902a0fb41ac0" }, "__v" : 0 },
{ "_id" : { "$oid" : "5496731abf2470aa0506ec58" }, "__v" : 0 },
{ "_id" : { "$oid" : "5496e3b5c1a0b84902f673bd" }, "__v" : 0 },
{ "_id" : { "$oid" : "54975450da0d62cb16c1c3bb" }, "__v" : 0 },
{ "_id" : { "$oid" : "549834c760868a2a535d1e7c" }, "__v" : 0 },
{ "_id" : { "$oid" : "5498bd8924999711490e6c40" }, "__v" : 0 },
{ "_id" : { "$oid" : "549967527ad842440d64e2d6" }, "__v" : 0 },
{ "_id" : { "$oid" : "549a1483335720345ae9e69f" }, "__v" : 0 },
{ "_id" : { "$oid" : "549ab1687c296c3f0b38736d" }, "__v" : 0 },
{ "_id" : { "$oid" : "549ad08017573c4f10a677c9" }, "__v" : 0 },
{ "_id" : { "$oid" : "549b410a3a21b25d3bb6fd38" }, "__v" : 0 },
{ "_id" : { "$oid" : "549bb18d79b06a6106e005a9" }, "__v" : 0 },
{ "_id" : { "$oid" : "54a23cf52763482e0b195de5" }, "__v" : 0 },
{ "_id" : { "$oid" : "54a23d3a4e9368760b30073b" }, "__v" : 0 },
{ "_id" : { "$oid" : "54a2af8c1616a17a29b8c636" }, "__v" : 0 },
{ "_id" : { "$oid" : "54a3200da1e2b419447bc266" }, "__v" : 0 },
{ "_id" : { "$oid" : "54a3908fe5bc55835f243bf2" }, "__v" : 0 },
{ "_id" : { "$oid" : "54a40110a9e1c92d7a02915f" }, "__v" : 0 },
{ "_id" : { "$oid" : "54a471906a71e74e1b2bff02" }, "__v" : 0 },
{ "_id" : { "$oid" : "54a4e2121dba691d4074929d" }, "__v" : 0 },
{ "_id" : { "$oid" : "54a55294a2d81b276431dd43" }, "__v" : 0 },
{ "_id" : { "$oid" : "54a5c3144e76b897057ad8b3" }, "__v" : 0 },
{ "_id" : { "$oid" : "54a6339679f748d621f58b46" }, "__v" : 0 },
{ "_id" : { "$oid" : "54a670cc3d28966a57ffae62" }, "__v" : 0 },
{ "_id" : { "$oid" : "54a675059e89ea5858b120d1" }, "__v" : 0 },
{ "_id" : { "$oid" : "54a675b43c9fda92584549c3" }, "__v" : 0 },
{ "_id" : { "$oid" : "54a6767ec830650e594eed56" }, "__v" : 0 },
{ "_id" : { "$oid" : "54a676be6b867a405976c6bf" }, "__v" : 0 },
{ "_id" : { "$oid" : "54a67846efee02365afdf453" }, "__v" : 0 },
{ "_id" : { "$oid" : "54a678e4a423c8c85ac3d78e" }, "__v" : 0 },
{ "_id" : { "$oid" : "54a67a38693a0eaf5be49de7" }, "__v" : 0 },
{ "_id" : { "$oid" : "54a67a519a3915075c0a52ff" }, "__v" : 0 },
{ "_id" : { "$oid" : "54a6a41f5db30ea13dcc24dc" }, "__v" : 0 },
{ "_id" : { "$oid" : "54a7149f1f8b65ed58195ce0" }, "__v" : 0 },
{ "_id" : { "$oid" : "54a727a9a83dcbb1785c9576" }, "__v" : 0 },
{ "_id" : { "$oid" : "54a7852133d7b7ca76936008" }, "__v" : 0 },
{ "_id" : { "$oid" : "54a7f43fa18e350927a9d082" }, "__v" : 0 },
{ "_id" : { "$oid" : "54a7f5a3464ee18017a5922c" }, "__v" : 0 },
{ "_id" : { "$oid" : "54a86623f57ce78a34f706a8" }, "__v" : 0 },
{ "_id" : { "$oid" : "54a876ae159213da33e726f3" }, "__v" : 0 },
{ "_id" : { "$oid" : "54a8d6a501586bcb50076151" }, "__v" : 0 },
{ "_id" : { "$oid" : "54a8e72f933ac78a3e6d4942" }, "__v" : 0 },
{ "_id" : { "$oid" : "54a94726531b68506cc103ba" }, "__v" : 0 },
{ "_id" : { "$oid" : "54a957b0a41a6964465395a0" }, "__v" : 0 },
{ "_id" : { "$oid" : "54a9b7a7164e2d6b095d34e2" }, "__v" : 0 },
{ "_id" : { "$oid" : "54a9c83004d26f764d6bf3cf" }, "__v" : 0 },
{ "_id" : { "$oid" : "54aa59bcc39127c17a290285" }, "__v" : 0 },
{ "_id" : { "$oid" : "54aa5d28c5e8932a7ec3f820" }, "__v" : 0 },
{ "_id" : { "$oid" : "54aa5d78b07bc3947eb04c6d" }, "__v" : 0 },
{ "_id" : { "$oid" : "54aa5ded5849daa07fd00519" }, "__v" : 0 },
{ "_id" : { "$oid" : "54aa6236b32e9b9e04f79f1c" }, "__v" : 0 },
{ "_id" : { "$oid" : "54aa628c8453a81b0526a145" }, "__v" : 0 },
{ "_id" : { "$oid" : "54ab189a4d50d0432967240d" }, "__v" : 0 },
{ "_id" : { "$oid" : "54abf8f1458764713969df17" }, "__v" : 0 },
{ "_id" : { "$oid" : "54ac9329123b11a23fe4371a" }, "__v" : 0 },
{ "_id" : { "$oid" : "54acbaefbaea3a524c8cfafb" }, "__v" : 0 },
{ "_id" : { "$oid" : "54acbb02a1d6c2784c4b5633" }, "__v" : 0 },
{ "_id" : { "$oid" : "54ad39d712f2eec240df8c00" }, "__v" : 0 },
{ "_id" : { "$oid" : "54adc0b80159554d4bab30de" }, "__v" : 0 },
{ "_id" : { "$oid" : "54ae8adcb26979d12f37ef69" }, "__v" : 0 },
{ "_id" : { "$oid" : "54aefb5e57d54e7736c2f098" }, "__v" : 0 },
{ "_id" : { "$oid" : "54afdc5e3a329fe9131bffd9" }, "__v" : 0 },
{ "_id" : { "$oid" : "54b04cdf87a537a71bb00d72" }, "__v" : 0 },
{ "_id" : { "$oid" : "54b0bd5f1a58866c230210b9" }, "__v" : 0 },
{ "_id" : { "$oid" : "54b12de0b5c96adf28201a70" }, "__v" : 0 },
{ "_id" : { "$oid" : "54b19e60a6de70fb2b4a9f2a" }, "__v" : 0 },
{ "_id" : { "$oid" : "54b20ee05f0b2de630c5afcd" }, "__v" : 0 },
{ "_id" : { "$oid" : "54b27f615139382135a02a06" }, "__v" : 0 },
{ "_id" : { "$oid" : "54b2efe1ffba6167389fda2a" }, "__v" : 0 },
{ "_id" : { "$oid" : "54b3cafde315c11a4521aa9a" }, "__v" : 0 },
{ "_id" : { "$oid" : "54b46e69222f058f5460c32b" }, "__v" : 0 },
{ "_id" : { "$oid" : "54b51cd187b64c12591ca40d" }, "__v" : 0 },
{ "_id" : { "$oid" : "54b5e501536ce53e6a2d35da" }, "__v" : 0 },
{ "_id" : { "$oid" : "54b60f101b211d29118c7c96" }, "__v" : 0 },
{ "_id" : { "$oid" : "54b60f2705fcf95011510204" }, "__v" : 0 },
{ "_id" : { "$oid" : "54b685b13de8c33d04a0ccf8" }, "__v" : 0 },
{ "_id" : { "$oid" : "54b70df468af32c545da9bb8" }, "__v" : 0 },
{ "_id" : { "$oid" : "54b78a4e91b9b7ba16d2c0ae" }, "__v" : 0 },
{ "_id" : { "$oid" : "54b7ac9be9ecbdd5352ea20f" }, "__v" : 0 },
{ "_id" : { "$oid" : "54b84874e40b10d03c3f382a" }, "__v" : 0 },
{ "_id" : { "$oid" : "54b91570ab7a2f797ed25ec1" }, "__v" : 0 },
{ "_id" : { "$oid" : "54b9af29e4a5b1304f9258db" }, "__v" : 0 },
{ "_id" : { "$oid" : "54ba69950371a7ec2c6ccacf" }, "__v" : 0 },
{ "_id" : { "$oid" : "54bada1c8975848d3ebb356d" }, "__v" : 0 },
{ "_id" : { "$oid" : "54bb4a9ee31e04fb2dd7af79" }, "__v" : 0 },
{ "_id" : { "$oid" : "54bc2b3caceb53ea3bc84fae" }, "__v" : 0 },
{ "_id" : { "$oid" : "54bd0af6a285d56a61051d1b" }, "__v" : 0 },
{ "_id" : { "$oid" : "54bda517c77a46c16032e959" }, "__v" : 0 },
{ "_id" : { "$oid" : "54be1e53421f299a0e3771f3" }, "__v" : 0 },
{ "_id" : { "$oid" : "54bef08824ec5ee47d6a0d41" }, "__v" : 0 },
{ "_id" : { "$oid" : "54bfb0e43322056612549fa9" }, "__v" : 0 },
{ "_id" : { "$oid" : "54c033cb7c82eec13e557e6f" }, "__v" : 0 },
{ "_id" : { "$oid" : "54c0e723499ab6052c5ba033" }, "__v" : 0 },
{ "_id" : { "$oid" : "54c19281d630589f592130b1" }, "__v" : 0 },
{ "_id" : { "$oid" : "54c252359a751930271b3d0f" }, "__v" : 0 },
{ "_id" : { "$oid" : "54c2f0646356a88631d5c68f" }, "__v" : 0 },
{ "_id" : { "$oid" : "54c360e4f32acb133ba1a137" }, "__v" : 0 },
{ "_id" : { "$oid" : "54c3d16414db63383eef9670" }, "__v" : 0 },
{ "_id" : { "$oid" : "54c441e50b1ae70d415140b1" }, "__v" : 0 },
{ "_id" : { "$oid" : "54c4b265aaa67b52459af1b0" }, "__v" : 0 },
{ "_id" : { "$oid" : "54c522e5035a93fb474a76c9" }, "__v" : 0 },
{ "_id" : { "$oid" : "54c5936621ebb46a4aa322b0" }, "__v" : 0 },
{ "_id" : { "$oid" : "54c603e6d669ab284ec88d8b" }, "__v" : 0 },
{ "_id" : { "$oid" : "54c674660fa1f77950780e48" }, "__v" : 0 },
{ "_id" : { "$oid" : "54c6e4e749113dbb52501ca9" }, "__v" : 0 },
{ "_id" : { "$oid" : "54c79a2d0a893d581627d113" }, "__v" : 0 },
{ "_id" : { "$oid" : "54c835609f3686fc1b939057" }, "__v" : 0 },
{ "_id" : { "$oid" : "54c8d17979fd62837090e3b5" }, "__v" : 0 },
{ "_id" : { "$oid" : "54c973d876c4e3ea592e93c6" }, "__v" : 0 },
{ "_id" : { "$oid" : "54ca3c6b4f412b5b7ea0bfab" }, "__v" : 0 },
{ "_id" : { "$oid" : "54cac1fba0b902853e012d42" }, "__v" : 0 },
{ "_id" : { "$oid" : "54cb895acb92875c704ee2f9" }, "__v" : 0 },
{ "_id" : { "$oid" : "54cc14a65ec4572235b45c43" }, "__v" : 0 },
{ "_id" : { "$oid" : "54cce282b6da9dce6008a08f" }, "__v" : 0 },
{ "_id" : { "$oid" : "54cd7ba23080bbe6258b4e24" }, "__v" : 0 },
{ "_id" : { "$oid" : "54cdec2261f08ece566cd201" }, "__v" : 0 },
{ "_id" : { "$oid" : "54cec4eba2ce288334c34152" }, "__v" : 0 },
{ "_id" : { "$oid" : "54cf9dd2a9f616746a3469ee" }, "__v" : 0 },
{ "_id" : { "$oid" : "54d00e526327be391c085c92" }, "__v" : 0 },
{ "_id" : { "$oid" : "54d0d1c7a94e8ca24f9798c7" }, "__v" : 0 },
{ "_id" : { "$oid" : "54d162a863f20479154e2f85" }, "__v" : 0 },
{ "_id" : { "$oid" : "54d223cb608bf5cb268fd242" }, "__v" : 0 },
{ "_id" : { "$oid" : "54d29a646721f8825b02254c" }, "__v" : 0 },
{ "_id" : { "$oid" : "54d374acbc7dd6680e5b90b2" }, "__v" : 0 },
{ "_id" : { "$oid" : "54d41ac17bf97d855ab108fa" }, "__v" : 0 },
{ "_id" : { "$oid" : "54d4f99af1ef35b7721da6d2" }, "__v" : 0 },
{ "_id" : { "$oid" : "54d56a1b4597d02c2699f115" }, "__v" : 0 },
{ "_id" : { "$oid" : "54d8388ecdf6dbd0111964b0" }, "__v" : 0 },
{ "_id" : { "$oid" : "54d906bd8dd34f530b45ac3b" }, "__v" : 0 },
{ "_id" : { "$oid" : "54d9d96f402b45e776cdfdf5" }, "__v" : 0 },
{ "_id" : { "$oid" : "54da7a3aa4b2525f543cb8e2" }, "__v" : 0 },
{ "_id" : { "$oid" : "54db2e3b445728c43ba920bf" }, "__v" : 0 },
{ "_id" : { "$oid" : "54dbca67cac0cac61c480c8d" }, "__v" : 0 },
{ "_id" : { "$oid" : "54dc9f75c28673f71e000a95" }, "__v" : 0 },
{ "_id" : { "$oid" : "54dd2dfd2a0dce9871fb6fb4" }, "__v" : 0 },
{ "_id" : { "$oid" : "54de03751e99e606020512e8" }, "__v" : 0 },
{ "_id" : { "$oid" : "54de73f6a3265aed3293ea81" }, "__v" : 0 },
{ "_id" : { "$oid" : "54de73f6c163d9b632b2119a" }, "__v" : 0 },
{ "_id" : { "$oid" : "54dee4773620b8f6621ae02f" }, "__v" : 0 },
{ "_id" : { "$oid" : "54df54f7d8f80cff139b93bb" }, "__v" : 0 },
{ "_id" : { "$oid" : "54dfc5771cdc851143bb48da" }, "__v" : 0 },
{ "_id" : { "$oid" : "54e09d7202845b9722c1b34b" }, "__v" : 0 },
{ "_id" : { "$oid" : "54e10df2525999ad5164c84d" }, "__v" : 0 },
{ "_id" : { "$oid" : "54e1de5ae66ddf926d352cac" }, "__v" : 0 },
{ "_id" : { "$oid" : "54e29e2308e69fdb4f733d1a" }, "__v" : 0 },
{ "_id" : { "$oid" : "54e363ed5f65d3fb467c0b9f" }, "__v" : 0 },
{ "_id" : { "$oid" : "54e3de102049580e7a2735c7" }, "__v" : 0 },
{ "_id" : { "$oid" : "54e41ae10ab48ebf217e3570" }, "__v" : 0 },
{ "_id" : { "$oid" : "54e4e0e831fbf4f8583b6a04" }, "__v" : 0 },
{ "_id" : { "$oid" : "54e5b85a571bf55c5e49c444" }, "__v" : 0 },
{ "_id" : { "$oid" : "54e65f07bfa2a91f403f97e9" }, "__v" : 0 },
{ "_id" : { "$oid" : "54e73a295170b53b5abd5caf" }, "__v" : 0 },
{ "_id" : { "$oid" : "54e7b8b3588521ed1845fa82" }, "__v" : 0 },
{ "_id" : { "$oid" : "54e831bd031833161c76b243" }, "__v" : 0 },
{ "_id" : { "$oid" : "54e8a23ddbbdd55b7e7c2e95" }, "__v" : 0 },
{ "_id" : { "$oid" : "54e912be7b34fcb9311b0f24" }, "__v" : 0 },
{ "_id" : { "$oid" : "54e9833e2ef78ce66359e96f" }, "__v" : 0 },
{ "_id" : { "$oid" : "54e9f3beda44aba816027da1" }, "__v" : 0 },
{ "_id" : { "$oid" : "54ea643f859893a947269a8a" }, "__v" : 0 },
{ "_id" : { "$oid" : "54eb3cc9532053334e9d747f" }, "__v" : 0 },
{ "_id" : { "$oid" : "54ebda6e6401afb11437beab" }, "__v" : 0 },
{ "_id" : { "$oid" : "54ec84b9ed1b7d29759993e4" }, "__v" : 0 },
{ "_id" : { "$oid" : "54ecfe2502122e4d2d67cc42" }, "__v" : 0 },
{ "_id" : { "$oid" : "54edd95a1187ae72798b9ff6" }, "__v" : 0 },
{ "_id" : { "$oid" : "54ee9497f0599afe4a7c7c83" }, "__v" : 0 },
{ "_id" : { "$oid" : "54ef7132172186030d795a5d" }, "__v" : 0 },
{ "_id" : { "$oid" : "54f03321cdd80adc02fdd418" }, "__v" : 0 },
{ "_id" : { "$oid" : "54f0a386fdcda6f26699e3eb" }, "__v" : 0 },
{ "_id" : { "$oid" : "54f11407762e990818adadf4" }, "__v" : 0 },
{ "_id" : { "$oid" : "54f1d5d96a442ede7852aa7a" }, "__v" : 0 },
{ "_id" : { "$oid" : "54f2465aa9817af52b904f2b" }, "__v" : 0 },
{ "_id" : { "$oid" : "54f2f67a35b9dccc76b7c2d8" }, "__v" : 0 },
{ "_id" : { "$oid" : "54f3acec8212411c4563599e" }, "__v" : 0 },
{ "_id" : { "$oid" : "54f4812b3397170d75c1237d" }, "__v" : 0 },
{ "_id" : { "$oid" : "54f5194b5f1adff537b4b2f9" }, "__v" : 0 }]
